CRISPR screening - R practice
…
calculate the number of sgRNAs that are significant for each gene

enrichSgSigGenes<-enrichSg %>% 
  filter(!grepl("[Cc]ontrol",enrichSg$gene) & !grepl("hsa-",enrichSg$gene)) %>% 
  filter(significant=="True") %>%
  group_by(Library,gene) %>% 
  summarize(NSig=length(sgRNA))

enrichSgSigGenes

## # A tibble: 27,561 x 3
## # Groups:   Library [?]
##    Library    gene  NSig
##      <chr>  <fctr> <int>
##  1  I1R1T3    A1CF     1
##  2  I1R1T3  A4GALT     1
##  3  I1R1T3 AADACL2     2
##  4  I1R1T3 AADACL4     2
##  5  I1R1T3   AAGAB     1
##  6  I1R1T3    AAK1     1
##  7  I1R1T3    AAMP     1
##  8  I1R1T3    AAR2     1
##  9  I1R1T3    AARD     1
## 10  I1R1T3  ABCA10     2
## # ... with 27,551 more rows
…
